\relax 
\select@language{english}
\@writefile{toc}{\select@language{english}}
\@writefile{lof}{\select@language{english}}
\@writefile{lot}{\select@language{english}}
\@writefile{toc}{\contentsline {section}{\numberline {1}Algorithm design and complexity}{2}}
\@writefile{toc}{\contentsline {section}{\numberline {2}Greedy 1}{4}}
\newlabel{pipe}{{1}{4}}
\@writefile{lof}{\contentsline {figure}{\numberline {1}{\ignorespaces Way to cover leaks}}{4}}
\citation{rmat}
\@writefile{toc}{\contentsline {section}{\numberline {3}Greedy 2}{5}}
\@writefile{toc}{\contentsline {section}{\numberline {4}Programming Assignment}{6}}
\@writefile{toc}{\contentsline {subsection}{\numberline {4.1}Report}{6}}
\newlabel{subsec:report}{{4.1}{6}}
\newlabel{static}{{4.1}{7}}
\@writefile{lof}{\contentsline {figure}{\numberline {2}{\ignorespaces The number of edges vs. the time for the static MST calculation}}{7}}
\newlabel{dynamic}{{4.1}{8}}
\@writefile{lof}{\contentsline {figure}{\numberline {3}{\ignorespaces The number of edges vs. the time for recomputeMST calculation}}{8}}
\newlabel{dynamic2}{{4.1}{8}}
\@writefile{lof}{\contentsline {figure}{\numberline {4}{\ignorespaces The number of nodes vs. the time for recomputeMST calculation}}{8}}
