\relax 
\select@language{english}
\@writefile{toc}{\select@language{english}}
\@writefile{lof}{\select@language{english}}
\@writefile{lot}{\select@language{english}}
\@writefile{toc}{\contentsline {section}{\numberline {1}Programming Assignment}{2}}
\newlabel{static}{{1}{3}}
\@writefile{lof}{\contentsline {figure}{\numberline {1}{\ignorespaces The number of edges vs. the time for the static MST calculation}}{3}}
\newlabel{dynamic}{{1}{4}}
\@writefile{lof}{\contentsline {figure}{\numberline {2}{\ignorespaces The number of edges vs. the time for recomputeMST calculation}}{4}}
\newlabel{dynamic2}{{1}{4}}
\@writefile{lof}{\contentsline {figure}{\numberline {3}{\ignorespaces The number of nodes vs. the time for recomputeMST calculation}}{4}}
