364.16,3,947,106.023666528
425.95,5576,7014,101.603133643
825.46,1001,5673,95.6972171923
733.19,1790,3174,92.5519831425
905.81,101,5440,91.5338569957
487.84,974,1683,92.174373949
659.44,5347,7807,90.9733292001
894.05,361,7965,91.8498896301
350.4,4425,6776,92.144793053
1049.96,172,4949,91.9561393791
