700.11,1563,8412,12.3454964142
402.34,3775,6016,11.6648339591
613.12,2691,6013,11.717053296
436.39,920,2360,11.613218314
849.5,3290,6312,11.4393550882
655.32,142,3632,11.4481086186
738.71,6,8951,11.6105017011
908.73,44,6285,18.1125637612
958.74,365,7332,11.679926253
469.11,2572,4149,12.2624887977
