\relax 
\@writefile{toc}{\contentsline {section}{\numberline {1}Scheduling with Weights}{2}}
\@writefile{toc}{\contentsline {section}{\numberline {2}Divide and Conquer}{3}}
\@writefile{toc}{\contentsline {section}{\numberline {3}Master Theorem}{3}}
\@writefile{loa}{\contentsline {algorithm}{\numberline {1}{\ignorespaces Divide and Conquer}}{4}}
\newlabel{divide_and_conquer}{{1}{4}}
\@writefile{loa}{\contentsline {algorithm}{\numberline {2}{\ignorespaces Linear Algorithm}}{4}}
\newlabel{linear}{{2}{4}}
\@writefile{toc}{\contentsline {section}{\numberline {4}Dynamic Programming}{5}}
\@writefile{loa}{\contentsline {algorithm}{\numberline {3}{\ignorespaces findMaxPlausibility(k)}}{6}}
\newlabel{max_plausibility}{{3}{6}}
\@writefile{loa}{\contentsline {algorithm}{\numberline {4}{\ignorespaces iterMaxPlausibility(k)}}{6}}
\newlabel{iter_plausibility}{{4}{6}}
