\relax 
\@writefile{toc}{\contentsline {section}{\numberline {1}Fiber Connectivity(FC)}{2}}
\newlabel{graph}{{1}{2}}
\@writefile{lof}{\contentsline {figure}{\numberline {1}{\ignorespaces Construction of a New Graph}}{2}}
\@writefile{toc}{\contentsline {section}{\numberline {2}"In Hartford, Hereford, and Hampshire...}{3}}
\@writefile{loa}{\contentsline {algorithm}{\numberline {1}{\ignorespaces Divide and Conquer}}{4}}
\newlabel{divide_and_conquer}{{1}{4}}
\@writefile{loa}{\contentsline {algorithm}{\numberline {2}{\ignorespaces Linear Algorithm}}{4}}
\newlabel{linear}{{2}{4}}
\@writefile{toc}{\contentsline {section}{\numberline {3}Master Theorem}{4}}
\@writefile{toc}{\contentsline {section}{\numberline {4}Dynamic Programming}{5}}
\@writefile{loa}{\contentsline {algorithm}{\numberline {3}{\ignorespaces findMaxPlausibility(k)}}{6}}
\newlabel{max_plausibility}{{3}{6}}
\@writefile{loa}{\contentsline {algorithm}{\numberline {4}{\ignorespaces iterMaxPlausibility(k)}}{6}}
\newlabel{iter_plausibility}{{4}{6}}
