\relax 
\providecommand \oddpage@label [2]{}
\select@language{english}
\@writefile{toc}{\select@language{english}}
\@writefile{lof}{\select@language{english}}
\@writefile{lot}{\select@language{english}}
\@writefile{toc}{\contentsline {section}{\numberline {1}Programming Assignment}{2}}
\newlabel{dc_and_dp}{{1}{3}}
\@writefile{lof}{\contentsline {figure}{\numberline {1}{\ignorespaces Input Size vs. Average Running Time (milliseconds)}}{3}}
