439.4,3996,5943,116.933583946
527.28,45,5762,118.072448444
742.51,6839,8730,115.513700935
785.22,5135,9969,115.920589179
711.15,6559,8960,116.435538247
925.67,4020,8689,116.898267978
545.26,797,2359,116.925132261
711.9,5,1701,123.968403981
721.3,8293,9990,118.030491867
1228.66,571,8383,116.499529573
