163.22,662,946,10.9515721492
191.12,166,406,10.6113918445
249.24,28,286,10.4957848732
271.88,378,991,10.5395525256
217.38,271,889,10.8902974359
136.41,50,229,10.7605037083
318.37,362,686,10.4725427406
306.25,542,925,10.3856111277
152.4,13,106,10.5887534037
356.81,11,920,10.5178196223
