829.77,169,4992,56.4300869105
331.44,4347,4987,57.8901154228
1294.67,79,3413,56.7787188997
582.18,277,3061,57.9867061038
534.8,1265,3566,57.8116354945
549.82,3340,4965,56.7545712294
254.5,4163,4821,56.8879871076
611.11,2628,4755,57.2529187742
423.66,156,1216,57.5789123225
229.5,1216,1761,56.9640522688
