297.71,1160,2578,5.9496841032
387.38,161,1052,5.078556899
549.03,1048,3002,5.57328229321
465.77,1178,3645,5.12866331477
375.78,389,2117,5.24547766959
403.36,2766,3752,5.3529348022
725.74,5,2752,5.0978750352
257.88,3601,3924,5.31731698858
588.19,1491,2444,5.21318016064
1096.07,259,3282,5.1461703757
