73514 137.614665053
73457 43.1255301231
73431 42.9842645891
73431 64.3675801637
73431 43.7431140598
73406 46.3055138836
73404 43.9661807897
73392 45.2997515779
73392 64.1668502917
73385 43.2441569496
73324 43.6582943696
73307 43.5592877561
73307 43.5767950231
73278 42.612687939
73276 62.7240100093
73270 42.7781014274
73270 42.0370610732
73270 41.5218040937
73215 44.1149925594
73209 42.5704290186
73209 66.5294257918
73209 47.3333111977
73209 46.5814042639
73196 45.4280375863
73196 45.9632166283
73119 69.6396823337
73072 45.2107059956
73072 43.6311279208
73028 43.9876120993
73028 43.5577785089
73028 43.9734251761
73028 67.7241458416
73028 43.5417804891
73016 43.3169026626
73014 43.6978366451
73009 46.5880449514
72994 46.67377019
72969 67.169648436
72926 45.7938790972
72900 42.5170016692
72897 47.2998059108
72880 45.3972489443
72868 45.0513294958
72793 62.9519063301
72793 44.6302495389
72793 43.0446344754
72793 41.5112393636
72724 43.2145757053
72724 65.5635076111
72724 46.8117153801
72698 46.1189709349
72641 43.1318689611
72641 43.3733485063
72616 42.8073808223
72591 61.4345092381
72591 44.0005916249
72576 42.8137196604
72576 41.2196528128
72576 42.1436139225
72576 44.0063267641
72569 61.2177813463
72530 42.1415009765
72487 43.9761418209
72483 42.8683544075
72483 44.4424991926
72466 65.715941574
72466 44.9290804761
72466 42.5278682488
72463 43.0711972254
72463 43.5810209151
72462 43.8886054858
72462 65.3449686228
72435 43.4062500943
72435 43.7576028326
72432 43.8466484148
72432 45.8684359068
72395 44.8306775614
72395 63.3452161393
72384 43.9263366647
72384 43.9190922784
72353 45.1904820837
72353 43.8517798552
72311 45.1201511662
72311 62.2624822286
72311 42.0919976697
72282 43.4895605374
72233 42.2429223855
72233 43.8557038978
72196 63.6754394173
72160 53.7192377698
72111 48.6569209547
72111 45.3290309728
72058 45.4204913505
72058 46.3184934091
72058 66.8231252886
72021 45.07034601
72021 44.328098258
72003 43.1623557537
72003 41.9754837892
71985 43.2157831031
71985 64.119459931
71912 43.2746437422
71896 41.0521263783
71896 41.4031772671
71896 44.3069687978
71862 63.9229559511
71821 43.562004401
71821 41.6362050282
71799 43.3482950035
71780 41.9996317437
71766 43.5535526169
71728 63.432450625
71711 43.6380704577
71711 42.3147625501
71672 41.8462922325
71672 41.8399533944
71666 45.103247598
71666 66.4147230079
71636 47.4887636549
71636 44.3362481927
71636 44.2698413178
71636 45.0338222288
71636 84.8601380659
71632 49.7465974023
71618 47.7444301234
71618 44.872332783
71604 44.1469885991
71598 45.3468400892
71598 66.9097560755
71533 44.7365005388
71489 44.1234443435
71479 44.5472409453
71479 43.9891213465
71479 43.7585083808
71479 63.3536679234
71479 45.0495183992
71479 46.2454458467
71469 44.3664331358
71469 44.6610381809
71431 44.1487996957
71431 63.3932101989
71431 43.9954601846
71431 45.8228566426
71430 44.5499575902
71424 43.5843412589
71424 65.6875677275
71412 46.0214735686
71403 43.9278459119
71400 43.7029680855
71399 43.5100862988
71399 43.522160276
71370 64.5034124078
71370 44.894065942
71370 44.8225276268
71370 44.1216332469
71360 43.9067164517
71360 43.5475156283
71348 63.6253324117
71328 43.7135328156
71324 44.0407375993
71298 42.7107890042
71287 43.0835730521
71287 65.2012882934
71283 44.2767838547
71283 42.9411001204
71283 43.1780519241
71267 43.0081106942
71255 44.1973974542
71228 64.0941045788
71205 44.8575421608
71191 44.4258974738
71191 43.7971451081
71189 44.8928585443
71184 45.2484371746
71184 63.5414182697
71134 44.0673003492
71134 44.6456438599
71112 44.6586233855
71112 44.1068426248
71112 44.3878644455
71104 63.2531520627
71104 42.5571476436
71102 42.9299316915
71102 43.6700664974
71095 45.39423045
71095 66.396612042
71095 44.6791491468
71095 45.4416208107
71094 45.7416591456
71068 44.6018756924
71009 45.6903447422
71009 65.3648906852
70998 44.4310289142
70998 44.4056735619
70998 44.9408526039
70998 43.9764436704
70962 43.7892970229
70935 64.6549408224
70923 45.0286907885
70889 45.3709880437
70889 42.7240703792
70872 44.1174073549
70861 65.7868761904
70837 43.8870962387
70837 44.3169298291
70776 44.4575916641
70776 45.7066446115
70776 45.0084668766
70776 64.9320386005
70747 44.7543096553
70747 43.8080116876
70747 44.5475427947
70738 44.6559067406
70738 45.482370484
70703 63.835419616
70664 44.3631127921
70664 44.7144655303
70664 44.8536181182
70664 44.6628492775
70664 67.8367356795
70656 45.2276095638
70610 44.8104536495
70610 44.1744568974
70610 44.8952733398
70609 45.5231201572
70599 70.8609651334
70599 45.2188559303
70599 45.2276095638
70583 42.8556767313
70583 43.0259198107
70583 49.3179712096
70583 61.617731843
70583 42.6422691833
70559 42.2145485389
70559 43.1098339526
70559 42.0195538062
70559 41.4659619489
70485 60.9255910966
70485 44.3528499114
70485 42.2045875077
70485 44.2867448859
70470 42.6993187258
70464 62.0342840584
70460 43.2607586684
70460 42.0584923828
70433 43.1327745094
70413 42.3346846126
70363 41.7379282866
70353 62.9196084409
70263 42.6899613935
70263 42.3929415529
70247 42.1155419254
70205 42.5296793453
70188 42.637137743
70188 62.2114696747
70131 42.3437400956
70113 43.077234214
70100 42.2700888343
70095 42.3428345473
70095 63.1182253668
70086 42.0603034794
70050 43.491371634
70050 43.5324231567
70050 42.8731839984
70040 42.9453260125
70017 63.1622953838
70017 42.2552982121
69979 42.0503424482
69956 42.7621034076
69956 42.0246852465
69955 43.4850327959
69955 61.4206241643
69955 42.6953946832
69909 42.3416271495
69882 42.5683160726
69882 41.8161072894
69804 42.7962123933
69774 60.9548704915
69774 41.5616482186
69747 42.7195426377
69747 43.0262216601
69747 42.4065247773
69726 63.5208925084
69726 42.9670591715
69726 45.0754774503
69726 43.4542441539
69708 40.9265570148
69690 41.6229236532
69690 60.8646175115
69690 40.857433495
69672 41.8167109882
69650 40.8722241172
69650 42.3941489506
69650 41.1134018129
69628 64.5803840128
69628 45.2861683535
69628 45.3866842142
69628 44.1062389259
69578 45.2602093024
69578 66.740116695
69578 45.7920680006
69578 43.2815862791
69578 41.0554467221
69545 42.0352499766
69545 42.3081218627
69545 62.5604076175
69545 44.5116227124
69537 43.5716635828
69537 44.6193829594
69537 45.0386518197
69529 43.5961133867
69529 63.0835126822
69529 42.747010936
69526 43.1418299924
69500 41.8822123149
69500 41.7623780906
69480 69.437745064
69480 42.9145373705
69458 43.1647705492
69458 41.5058060738
69458 43.7536787899
69457 42.0352499766
69429 63.7282630678
69417 42.548997709
69397 42.3847916182
69397 42.7684422456
69388 43.108022856
69388 42.0141205164
69382 64.639244652
69382 42.7563682684
69377 42.7557645695
69377 41.5218040937
69367 41.2727783127
69330 42.3467585899
69330 61.256719923
69330 43.1463577338
69323 43.218499748
69323 42.5242460556
69311 42.6633986435
69311 63.6838912014
69279 42.5387348283
69270 43.8333670399
69270 42.0222704511
69270 42.5782771038
69270 43.1442447878
69270 63.0098614209
69244 44.1807957355
69240 43.6154317503
69240 42.7334277116
69240 46.5276750651
69203 44.8922548454
69203 64.2027703741
69201 44.0516041788
69201 44.9547376778
69190 43.6226761367
69184 51.5981418149
69184 67.9118961879
69184 43.4110796852
69180 44.0802798748
69147 44.4811359198
69147 43.5568729606
69147 45.035331476
69144 67.4035817454
69144 45.4419226601
69125 46.3930502187
69109 46.3996909062
69109 45.1446009701
69109 46.3296618381
69070 65.0382896004
69045 43.7527732417
69045 46.2333718694
69036 44.8240368739
69033 44.8910474477
69033 44.3416814824
69033 63.3418957955
69033 43.3455783586
69033 43.5475156283
69033 44.4760044794
69033 44.8391293455
69033 65.1403147082
69033 43.1529984213
69033 45.1660322798
69033 44.0208155368
69033 42.9558907426
69021 44.7621577405
69011 67.2804271773
68999 44.8430533881
68990 44.6731121582
68972 44.8164906381
68972 43.9024905597
68972 45.0944939645
68972 64.8263912995
68970 45.4890111714
68962 43.5321213073
68954 44.2635024797
68954 43.6374667588
68954 66.053107389
68940 43.9773492187
68940 43.7536787899
68940 43.6483333384
68884 49.640044553
68874 43.1596391088
68867 65.8544904631
68831 45.140978777
68807 45.7585627137
68807 44.0935612498
68807 44.6356828287
68777 44.4684582437
68776 63.4662577613
68763 45.0111835214
68737 43.9091312472
68729 43.1889185037
68707 43.982480659
68707 66.3537494227
68661 44.097183443
68641 42.9915089755
68641 43.7905044206
68629 44.2435804172
68611 44.0054212158
68611 66.1656972269
68611 44.9417581522
68611 43.5804172163
68596 43.8273300512
68596 45.1053605441
68596 44.3443981273
68588 64.2875900643
68588 44.8880289534
68574 45.9318242874
68556 44.1204258492
68556 44.7470652689
68556 44.3730738233
68556 65.341648279
68556 44.6794509963
68556 44.7241247121
68551 45.8521360375
68551 43.6250909321
68551 66.2882480961
68544 44.4400843971
68544 44.7298598513
68514 44.1388386645
68514 44.9831115243
68486 45.52161091
68471 65.1985716485
68471 42.5477903112
68469 43.4711477221
68461 40.4454090211
68461 42.0630201243
68441 43.5976226339
68441 61.0698751249
68419 43.1696001401
68348 41.2585913894
68348 40.8655834297
68346 41.3539758098
68346 65.3784739096
68323 41.3648423893
68303 41.5486686931
68303 43.3250525973
68303 41.2655339264
68257 41.6769547015
68257 62.0487728311
68250 41.5595352726
68246 42.9951311687
68246 42.5384329789
68246 42.1550842009
68213 42.0129131187
68213 62.2588600354
68213 43.5852468072
68189 41.6298661901
68181 42.9743035579
68140 43.3226378018
68140 42.7940994473
68140 61.3958725109
68137 41.7702261758
68137 42.7044501662
68128 42.9287242937
68128 43.8532891023
68123 64.548991672
68074 43.2737381939
68067 42.2565056099
68067 42.9003504472
68067 41.7484930167
68037 41.894889991
68037 61.5045383062
68037 43.0059977482
68012 42.5257553027
68003 48.177885907
67985 42.6317044532
67982 41.6706158634
67982 63.079890489
67968 42.7557645695
67945 42.9972441147
67922 43.8052950427
67922 43.2015961798
67922 64.3506765955
67922 43.2046146741
67919 42.9601166346
67919 43.308752728
67899 41.9302063745
67899 41.7883371417
67886 63.3769103296
67886 42.2583167065
67886 42.4406337631
67885 41.3301297047
67885 42.2963497348
67860 41.5882109686
67860 62.7575152962
67860 42.4614613738
67860 42.020157505
67830 41.9516376841
67827 41.9960095505
67800 64.3518839932
67800 42.2100207974
67800 43.3015083416
67800 42.3223087859
67800 41.8740623802
67800 42.5254534533
67800 63.1598805884
67787 42.5622790839
67787 43.3636893245
67787 41.6322809856
67787 41.5190874488
67786 41.7512096616
67744 63.1490140088
67723 43.4853346454
67717 42.9266113477
67717 43.4258703074
67717 42.8949171574
67717 43.6733868412
67704 61.0261069573
67704 42.9601166346
67704 42.698715027
67686 43.2912454609
67680 42.6809059105
67680 64.5326918027
67680 43.537554597
67680 43.0932322339
67671 42.2818609621
67662 41.2978318155
67662 42.8423953563
67653 65.3470815688
67642 44.0425486959
67614 43.6519555315
67614 42.7367480553
67609 43.5197454806
67609 41.9365452125
67609 62.0904280527
67609 41.6168866646
67552 42.1411991271
67523 42.6724541264
67523 44.3667349853
67521 65.9676839999
67521 43.7989562047
67521 43.2067276201
67521 44.3519443631
67521 42.9785294499
67513 44.0947686475
67464 65.8071001023
67430 44.127972085
67430 44.5067931215
67430 42.641363635
67424 42.804362328
67424 42.497985155
67413 61.8486466581
67413 41.5362928664
67409 43.3280710916
67406 42.1568952975
67385 42.2731073286
67352 42.0811310902
67328 61.5769821698
67326 41.390499591
67315 42.9697758164
67269 43.3516153472
67247 42.0545683402
67246 62.6413032651
67229 43.0727064726
67229 42.9700776659
67229 42.6706430298
67203 41.2857578383
67203 42.4844019306
67137 63.7023040167
67137 42.8185492513
67110 40.7206957026
67110 41.5936442584
67110 42.0415888147
67110 42.2640518457
67110 63.92355965
67098 44.2284879456
67098 43.2305737252
67098 44.0564337697
67098 43.0307494016
67074 65.0805485208
67047 42.7950049956
67047 42.6769818679
66974 43.7168531593
66961 42.4339930756
66951 43.1203986827
66951 63.8592657211
66902 43.1988795349
66891 43.1013821685
66891 44.5324503231
66891 42.9658517738
66891 42.819756649
66891 63.3892861563
66865 43.1560169156
66810 42.6827170071
66747 42.9619277312
66747 42.4336912261
66714 64.3479599506
66688 43.1034951146
66663 41.3603146478
66655 42.3521918796
66655 41.2927003752
66655 42.9024633932
66655 66.0407315623
66655 43.3048286854
66655 42.2655610928
66655 43.3383339722
66644 42.4684039108
66623 41.7062340963
66607 62.13962951
66607 42.6307989049
66607 42.3863008654
66589 42.6652097401
66577 42.4865148767
66577 41.2658357758
66577 62.6047794839
66539 42.0092909255
66510 43.1563187651
66506 42.6751707713
66505 43.3356173274
66505 65.2948616171
66482 42.6905650923
66482 42.2963497348
66482 41.3186594263
66482 41.9142083546
66482 42.2121337434
66482 62.9769598329
66468 41.7324949968
66461 43.0965525776
66461 41.2733820116
66461 42.2794461667
66461 43.0096199414
66431 63.133015989
66421 43.4225499636
66413 44.8804827176
66413 44.2867448859
66391 47.0933408997
66391 71.8341277004
66391 50.0402968991
66391 49.122372778
66385 44.9583598709
66381 46.6475092894
66357 48.1830173473
66357 66.1777712042
66357 44.4956246925
66350 48.0689182622
66310 44.5982534992
66310 45.5744345605
66272 46.0990488724
66262 66.0045096305
66262 43.7385863184
66252 43.777524895
66238 44.1786827895
66238 44.3284001075
66215 53.1602126227
66215 76.3983929536
66215 50.4429640407
66190 52.9643123417
66182 48.5766290059
66182 47.5630186151
66181 71.4806620162
66095 44.6284384423
66095 47.1509941411
66095 45.9010356454
66095 49.076189815
66095 46.8301281955
66069 73.0219052132
66063 47.9086362141
66051 45.0658182685
66045 46.3320766335
66045 44.5541834822
66045 46.3574319858
66032 64.8764983051
66028 44.856938462
66007 45.6643856911
66007 44.8792753199
66000 49.0635121389
65990 74.0632857518
65990 53.6301921875
65959 42.4813834363
65959 43.024712413
65918 42.4427467091
65918 42.8291139814
65918 62.3572629501
65892 42.0071779795
65874 43.0503696146
65874 43.1276430691
65861 43.5964152362
65861 42.9963385664
65856 63.3301236677
65856 43.7654509178
65815 44.3024410564
65801 44.3036484541
65753 43.1137579952
65747 65.0920187992
65747 44.4431028914
65747 42.260127803
65747 43.0159587794
65747 42.3941489506
65747 42.5339052374
65745 63.5411164203
65733 43.5188399323
65731 44.0543208237
65731 42.9595129358
65721 43.4355294892
65721 41.6769547015
65721 61.6518408288
65721 43.6009429776
65721 43.0835730521
65717 42.2749184252
65688 42.4439541068
65679 41.7192136219
65675 61.5552490107
65675 44.9773763851
65675 43.3259581456
65669 42.1043734964
65669 42.3099329592
65669 65.6332348298
65669 42.6582672032
65669 42.5465829135
65669 41.1961085571
65660 41.883721562
65660 43.1548095179
65644 63.2000265627
65644 42.8653359131
65594 41.7702261758
65594 42.3494752348
65593 42.1928153798
65556 42.656757956
65556 63.7961791899
65556 43.7482455002
65556 42.6504191179
65556 43.5019363641
65548 41.3835570541
65548 62.9325879665
65548 44.3585850506
65541 42.2474501269
65541 42.6953946832
65541 41.4074031592
65541 43.5526470686
65523 62.6361718248
65523 42.3002737774
65483 41.9775967352
65483 42.7913828024
65483 42.9700776659
65483 42.2827665104
65483 62.2313917372
65483 43.3733485063
65449 43.0298438533
65449 42.2924256922
65413 42.3606436637
65409 43.3588597336
65409 62.9754505857
65352 43.9640678437
65352 43.343767262
65349 45.0579701833
65349 43.4071556426
65293 66.4690559055
65276 43.4747699153
65260 44.2221491076
65260 44.1309905793
65256 42.4614613738
65223 42.8097956177
65223 65.38360535
65223 41.5978701504
65223 42.8052678763
65223 42.1816469509
65223 42.6848299531
65205 41.9640135108
65179 62.0475654334
65159 43.9794621647
65159 43.7156457616
65159 43.2018980292
65159 42.8161344558
65154 64.3917281182
65154 41.5169745028
65154 41.2392730258
65144 41.6682010679
65120 42.6969039304
65120 42.2396020417
65120 61.9062998995
65114 43.8738148637
65114 43.478090259
65114 42.7186370894
65114 41.8800993688
65114 42.7044501662
65096 63.3572901165
65096 43.1240208759
65092 42.2969534337
65092 42.6350247969
65073 41.7702261758
65037 64.2715920445
65011 42.4844019306
65002 42.8149270581
65002 43.8360836847
65002 43.187711106
65002 42.9423075182
65002 62.690202873
64973 42.0759996499
64952 41.9003232807
64925 44.1355183208
64925 42.1472361157
64908 44.4213697323
64908 61.6307113686
64905 43.9987805283
64879 42.1725914679
64879 40.9993027278
64879 42.6793966634
64879 40.736391873
64836 60.6023103555
64836 41.9431859
64827 42.4819871352
64809 43.1692982906
64805 42.6591727514
64801 62.3883534415
64747 49.653325928
64736 43.4971067732
64736 42.5948788225
64736 42.4711205556
64736 41.8315016104
64736 61.8190654138
64736 41.881608616
64736 42.6311007543
64714 42.4418411608
64714 42.4756482971
64714 41.9510339852
64714 63.8526250336
64714 45.1624100866
64714 45.2559834104
64684 42.9815479443
64680 42.982755342
64680 65.3977922733
64680 44.4805322209
64666 42.0759996499
64655 43.533328705
64651 41.897002937
64651 40.7789526428
64651 64.8777057028
64651 44.9988076947
64651 48.8507082897
64642 43.1671853446
64642 43.0455400237
64642 42.6386469901
64629 62.5462206942
64629 42.2489593741
64577 41.9778985846
64577 41.9015306785
64577 42.6386469901
64485 43.9212052244
64485 62.476795325
64457 42.9743035579
64437 41.8275775678
64425 44.4114087011
64401 49.6952829989
64401 65.8620366989
64401 42.0965254112
64394 43.4349257903
64379 44.2493155564
64379 42.134860289
64330 42.8448101518
64330 61.782843482
64330 43.0826675038
64330 41.6392235225
64330 41.3705775285
64295 40.9334995517
64295 42.6727559759
64295 62.4115958478
64295 44.4717785874
64295 45.4087192227
64288 43.8828703466
64277 42.2667684905
64277 63.8471917438
64248 43.878946304
64248 42.4515003426
64220 42.5885399845
64220 42.2133411412
64218 42.6467969248
64187 61.1492615254
64187 42.8420935069
64185 40.6536851288
64171 42.4632724704
64171 42.1725914679
64151 42.2595241042
64151 62.2700284644
64151 44.2052455394
64151 41.2567802929
64142 42.9770202028
64142 42.3980729932
64133 64.2749123882
64133 43.4666199806
64133 44.2625969314
64133 43.6525592304
64112 41.897002937
64112 41.91662315
64112 64.3757300983
64112 45.1521472059
64112 44.4464232352
64112 45.0169186606
64062 42.8058715751
64062 42.5369237317
64062 64.6975015923
64055 50.6738788557
64055 44.1228406446
64055 43.9975731306
64051 44.4935117465
64045 44.3631127921
64045 63.6829856531
64037 43.3220341029
63983 43.8403095768
63980 44.3582832012
63969 43.8671741762
63969 65.1535960832
63907 44.805925908
63893 43.7702805087
63893 43.8261226535
63893 43.1394151969
63893 43.3084508785
63893 63.7204149826
63893 61.1073044544
63877 67.2804271773
63828 52.2193479449
63811 45.7199259865
63803 45.4512799925
63803 62.9265509778
63803 44.0784687782
63803 43.1182857367
63803 41.7916574854
63803 43.6588980685
63803 63.703209565
63803 43.8837758949
63803 42.4940611124
63803 46.7619102239
63767 44.2656154257
63742 45.4681835607
63701 66.4283062323
63679 45.1095864361
63660 44.6670751696
63660 45.5164794697
63660 45.5469662623
63660 45.3075996631
63660 63.3609123097
63660 44.2248657525
63618 44.4962283914
63618 43.6727831423
63618 43.8913221307
63610 44.1234443435
63585 62.0686948936
63573 43.1874092565
63573 44.2761801558
63573 44.9188175954
63532 46.7362530223
63532 65.597012898
63532 44.9040269733
63532 44.5357706669
63532 44.920628692
63499 44.2435804172
63476 43.1656760975
63474 63.601788156
63459 45.0573664844
63456 45.724453728
63454 44.160873673
63431 43.9112441932
63431 44.0241358805
63431 62.923834333
63427 44.8050203597
63419 43.8732111648
63413 43.3519171967
63368 43.7889951734
63368 65.4424659891
63368 44.493209897
63355 43.5164251368
63355 44.0114582044
63336 42.9235928534
63307 43.9151682358
63285 65.7612189887
63285 44.4144271954
63255 43.6441074463
63239 43.7714879064
63239 42.7937975979
63239 44.3760923176
63239 66.216106082
63235 44.9523228823
63235 42.883446879
63235 44.2124899258
63235 42.8502434416
63235 65.9193880908
63235 43.6051688697
63202 43.9619548977
63188 42.5287737971
63188 43.401118654
63188 43.5297065118
